{
    "advisory": {
        "id": 208,
        "cwe": "CWE-818"
    },
    "correct_cwe": "CWE-818",
    "correct_package_link": "https://registry.npmjs.org/openframe-glslviewer/-/openframe-glslviewer-0.2.8.tgz",
    "vulnerability": {
        "vulnerability_location": [
            {
                "block": {
                    "file": "install.sh",
                    "start_lineno": 38,
                    "end_lineno": 38,
                    "code": "git clone --depth=1 --branch=master http://github.com/patriciogonzalezvivo/glslViewer glslViewer"
                }
            },
            {
                "block": {
                    "file": "install.sh",
                    "start_lineno": 56,
                    "end_lineno": 56,
                    "code": "git clone --depth=1 --branch=master http://github.com/patriciogonzalezvivo/glslViewer glslViewer"
                }
            },
            {
                "block": {
                    "file": "install.sh",
                    "start_lineno": 77,
                    "end_lineno": 77,
                    "code": "git clone --depth=1 --branch=master http://github.com/patriciogonzalezvivo/glslViewer glslViewer"
                }
            }
        ],
        "fail_reason": ""
    },
    "poc": [],
    "patch": [],
    "tools": {
        "codeql": {
            "score": "C"
        },
        "njsscan": {
            "score": "E"
        },
        "drek": {
            "score": "C"
        },
        "mosca": {
            "score": "C"
        },
        "msdevskim": {
            "score": "A"
        },
        "appinspector": {
            "score": "B"
        },
        "eslint": {
            "score": "C"
        },
        "insidersec": {
            "score": "D"
        },
        "graudit": {
            "score": "C"
        }
    }
}
