{
    "advisory": {
        "id": 720,
        "cwe": "CWE-331"
    },
    "correct_cwe": "CWE-331",
    "correct_package_link": "https://registry.npmjs.org/cryptiles/-/cryptiles-4.1.1.tgz",
    "vulnerability": {
        "vulnerability_location": [
            {
                "block": {
                    "file": "lib/index.js",
                    "start_lineno": 32,
                    "end_lineno": 32,
                    "code": "digits.push(Math.floor(buffer[i] / 25.6));"
                }
            }
        ],
        "fail_reason": ""
    },
    "poc": [
    ],
    "patch": [
        {
            "url": "https://github.com/hapijs/cryptiles/commit/cb6bd642816e0cb8341d2b3896fd9e7c57e94f56"
        }
    ],
    "tools": {
        "codeql": {
            "score": "A"
        },
        "njsscan": {
            "score": "E"
        },
        "graudit": {
            "score": "D"
        },
        "insidersec": {
            "score": "D"
        },
        "eslint": {
            "score": "D"
        },
        "appinspector": {
            "score": "D"
        },
        "msdevskim": {
            "score": "D"
        },
        "drek": {
            "score": "D"
        },
        "mosca": {
            "score": "D"
        }
    }
}
